<?xml version="1.0" encoding="utf-8"?>
<!-- Generator: Adobe Illustrator 20.1.0, SVG Export Plug-In . SVG Version: 6.00 Build 0)  -->
<svg version="1.1" id="Layer_1" xmlns="http://www.w3.org/2000/svg" xmlns:xlink="http://www.w3.org/1999/xlink" x="0px" y="0px"
	 viewBox="0 0 500 284" style="enable-background:new 0 0 500 284;" xml:space="preserve">
<style type="text/css">
	.st0{fill:#FFFFFF;}
	.st1{fill:#D1D3D4;}
	.st2{fill:url(#SVGID_1_);}
	.st3{fill:#414042;}
	.st4{fill:#FFDE70;}
	.st5{fill:url(#SVGID_2_);}
</style>
<polygon points="388.1,223.2 497,276.8 374.4,240 "/>
<polygon points="110.7,167.2 5.4,106.7 125.4,151.1 "/>
<path d="M169.5,149.9c0,0-8.3,20.1-5.3,33.9c0,0,6.9-18.8,18.6-23.1C194.4,156.3,169.5,149.9,169.5,149.9z"/>
<g>
	<path d="M185.9,69.6c0,0-18,7.7-31.8,28.9l19.6-7.2l0.8-7.5l12.8-12.5L185.9,69.6z"/>
	<path class="st0" d="M401.9,133c0,0.1-0.1,0.2-0.1,0.3v0c-0.6,1.4-1.6,3.1-2.9,5c-1.4,2.2-3.2,3.8-5.2,4.9c0,0-0.1,0-0.1,0.1
		c-0.2,0.2-0.5,0.2-0.6,0.3c0,0,0,0-0.1,0c-2.7,1.3-6,1.7-9.5,1.1c-1.6-0.2-3-0.6-4.7-1.1c-0.2,0-0.3-0.2-0.5-0.2
		c-4.8,3-9.3,4.2-13.3,3.5c-4-0.6-6.1-2.7-6.4-3l-3.8-4.2l-0.3-0.3h0.5l0,0l5.4-0.6c1.8-0.2,3.2-1,4.3-1.8c-2.1-1.1-5.2-2.4-9.1-3.6
		l0,0c-0.2-0.1-0.4-0.1-0.7-0.2c-1.9-0.5-4-1-6.3-1.4c-0.3-0.1-0.6-0.1-1-0.2h0c-0.2,0-0.4-0.1-0.6-0.1c-0.6-0.2-1.1-0.2-1.8-0.3
		c-1.4-0.2-2.9-0.3-4.3-0.3l-0.5,0.3l0,0l-1.4,0.8l-1.9,1.2l-0.2,0.1l-1.1,0.6c-0.3,0.5-2.4,3.8,1.6,13c0,0.2,0.2,0.2,0.2,0.3
		c0.2,0.3,0.3,0.7,0.5,1l0,0c0.4,0.9,0.9,1.8,1.3,2.6v0c0,0.1,0.1,0.2,0.1,0.3c0.5,1,1.1,1.8,1.8,2.6c1.4,0.8,2.9,1.8,4.2,2.6
		c0.5-0.5,1.3-1.4,1.8-2.1l3.7-5.9l0.5-0.8l0.3,1.4l1.3,6.3c0.6,3.5,0,6.4-0.6,8.2c0,0.2-0.2,0.3-0.2,0.5l2.3,3.5l-3.2,1.5
		c-0.2,0-0.3,0.2-0.7,0.3c-1.1,0.5-2.4,1-3.5,1.3c-4.3,1.3-8.7,1.6-13.2,1c-15.9-2.6-26.6-17-27.1-17.6l-4.6-6.4
		c-6.7,1.9-16.5,6.4-20.2,15.7c-0.8,1.9-1.3,4-1.4,6.3v0.1c-0.1,2.2,0,4.4,0.3,6.7c0,0,0,0,0,0.1c0.8,4.6,2.4,9.6,5.1,15.1
		c3.2,6.4,7.7,13.3,13.6,20.8c0,0,0,0,0.1,0.1c1,1.1,1.8,2.2,2.7,3.5l3.5,4.2l0.1,0.2l-11.5-3.3l-6.1-1.8l0.5,1.1l0,0.2l0.1,0.2
		l-0.1,0l1.1,3.2l-6.4-0.8l-0.3,0l-12-1.3l-23.8-2.5l-0.1,0l-19.7-2.3l-30-3.3h0l-0.5-0.1l-14.6-1.7l-0.1,0h0l-0.4,0l-10.5-1.1
		l-0.1,0c-0.3-1-0.5-2.1-0.8-3.2c0-0.1,0-0.3-0.1-0.4v0c0-0.1,0-0.2-0.1-0.3c0,0,0,0,0,0c0,0,0,0,0,0c-0.1-0.3-0.1-0.6-0.2-0.9
		c0,0,0,0,0,0c0-0.2-0.1-0.4-0.1-0.6l-10.9-6.3l-4.5-2.6c0,0,0-0.1,0-0.1c0-0.1-0.1-0.2-0.1-0.2c-1.1-2.5-2-5.3-2.9-8.3
		c0,0,0-0.1,0-0.1v0c-0.8-2.5-1.4-5.2-2.1-8.1c-0.6-2.9-1.1-5.9-1.4-9c0-0.1,0-0.1,0-0.2c-0.3-2-0.5-4.2-0.5-6.4c0-0.1,0-0.3,0-0.4
		c-0.4-10.6,1-22.5,5.8-35.1c3.5-9.3,8.7-18.3,15.2-27l0.2-1.1l1-0.3c1-1.3,1.9-2.4,3-3.7c0.1-0.1,0.2-0.2,0.2-0.3
		c0.1-0.1,0.2-0.2,0.3-0.4l0.6-5.5c0-0.2,0-0.3,0-0.3c0-0.2,0.1-0.4,0.2-0.7c0-0.1,0.1-0.2,0.1-0.4c0.4-0.9,1-2,2.2-3.4
		c1.6-1.9,4.1-4.2,8.1-6.8h0c0.2-0.1,0.5-0.3,0.7-0.5c1.8-1.1,3.7-2.4,6.1-3.7c0.1-0.1,0.3-0.1,0.4-0.2c0.3-0.2,0.5-0.3,0.7-0.4
		l0.5-0.8l0.2-0.3l3.8-6.1l0.2-0.3c0,0,0,0,0,0c0.3-0.5,1-1.4,2.9-3c0.3-0.3,0.6-0.6,1-0.8l0,0c0.2-0.2,0.5-0.4,0.8-0.6
		c0,0,0.1-0.1,0.1-0.1c4.2-3.2,11.9-7.7,25.6-13.6l1.1-0.5c1.8-0.8,3.7-1.4,5.8-2.4l1-0.3c0.6-0.3,1.4-0.5,2.1-0.8
		c0.3-0.2,0.6-0.2,1-0.3l-0.2-0.2c-0.4-0.4-0.8-0.8-1.1-1.2c-1.8-2-3.3-4.1-4.5-6.2l0,0c-0.4-0.6-0.8-1.3-1.1-1.9
		c-4-7.4-4.5-13.6-4.7-14l-0.3-2.7l0.6-0.1l2.1-0.4c8.8-1.6,17.8-2.4,26.8-2.4c1.8,0,3.5,0,5.3,0.1h0.1c5.5,0.2,11,0.8,16.3,1.7
		c6.7,1,13.1,2.6,19.2,4.5l0,0c1.5,0.5,3,0.9,4.4,1.5c2.1,0.8,4.3,1.6,6.4,2.6h0.2c3.8,1.6,7.7,3.5,11.2,5.6
		c7.4,4.2,14,9.1,19.9,14.9c1.5,1.4,2.9,2.9,4.2,4.5l0.2,0.2c2.1,2.2,4,4.6,5.8,7.2c0.6,0.9,1.2,1.8,1.8,2.6l0,0
		c2.5,3.7,4.7,7.6,6.7,11.8c0.3,0.6,0.7,1.3,0.8,1.8c0.6,1.4,1.3,2.8,1.9,4.1l0,0.1c3.7,7.8,7.6,15,11.5,21.5
		c0.6,1.1,1.4,2.3,2.1,3.2c5.3,8.2,10.1,14,14.1,18.1c0.8,0.8,1.6,1.6,2.2,2.3l2.1,1.9c1.2,1,2.2,1.8,3,2.5c0.1,0.1,0.1,0.1,0.2,0.2
		c0.6,0.4,1.1,0.8,1.5,1.1l0,0c0.4,0.3,0.7,0.5,1,0.7l0.3,0.2c1.3,0.6,3.2,1.4,3.9,3.7C402.8,129.8,402.5,131.3,401.9,133z"/>
	<path class="st1" d="M257.1,36.9c0,0-6.6-1.6-14-1.9c0,0-7.5-13.3-8-16.5c0,0,67.9-7.5,102.2,39.5s33.9,66.3,65,71.6l-13.8-12.8
		l-18.5-24.4l-12.8-23.9l-9.6-18.1l-18-18.9l-26-13L275.9,12l-22.5-2.2L236,10.6l-9.3,2.2l6.9,23.6l7.7,4
		C240.9,40.6,252.5,36.4,257.1,36.9z"/>
	<path class="st1" d="M265.3,192.2c0,0-13.5-29.8,4.3-49.1c0,0-4.3,1.6-5.5,3.4c0,0,2.9-17.2,37.2-25c0,0-17.2-4.5-54.4,15.6
		s-5.3,51.8-5.3,51.8L265.3,192.2z"/>
	<path d="M269.3,21.8c-2.4-0.8-5.1-1.4-7.9-1.9c-12.2-1.9-25.8-0.5-25.8-0.5c0,0.4,0.1,0.8,0.3,1.3c0,0,0,0,0,0
		c0.1,0.2,0.1,0.4,0.2,0.6c0,0,0,0.1,0.1,0.1c0,0,0,0,0.1,0c0.2,0.5,0.3,0.8,0.6,1.3c0.2,0.3,0.2,0.5,0.3,0.8
		c2.2,4.4,6.2,9.9,6.7,10.8c-2.7-5.8-2.4-11.6-2.4-11.6C249.9,19.9,268.2,21.7,269.3,21.8z M269.3,21.8c-2.4-0.8-5.1-1.4-7.9-1.9
		c-12.2-1.9-25.8-0.5-25.8-0.5c0,0.4,0.1,0.8,0.3,1.3c0,0,0,0,0,0c0.1,0.2,0.1,0.4,0.2,0.6c0,0,0,0.1,0.1,0.1c0,0,0,0,0.1,0
		c0.2,0.5,0.3,0.8,0.6,1.3c0.2,0.3,0.2,0.5,0.3,0.8c2.2,4.4,6.2,9.9,6.7,10.8c-2.7-5.8-2.4-11.6-2.4-11.6
		C249.9,19.9,268.2,21.7,269.3,21.8z M269.3,21.8c-2.4-0.8-5.1-1.4-7.9-1.9c-12.2-1.9-25.8-0.5-25.8-0.5c0,0.4,0.1,0.8,0.3,1.3
		c0,0,0,0,0,0c0.1,0.2,0.1,0.4,0.2,0.6c0,0,0,0.1,0.1,0.1c0,0,0,0,0.1,0c0.2,0.5,0.3,0.8,0.6,1.3c0.2,0.3,0.2,0.5,0.3,0.8
		c2.2,4.4,6.2,9.9,6.7,10.8c-2.7-5.8-2.4-11.6-2.4-11.6C249.9,19.9,268.2,21.7,269.3,21.8z M405.4,127.7c-1-3.5-3.9-5-5.5-5.6h-0.2
		c-2.7-1.8-11.9-8.5-23.3-25.8c-5.3-8.2-10.6-17.8-15.4-28.4c-0.3-0.6-0.6-1.3-1-1.9c-14.8-30.6-44-50.9-82.2-57
		c-16-2.6-33.2-2.3-49.4,0.6l-5.6,1l0.5,5.6c0,0.5,1.1,11.4,9.3,21.8c-2.1,0.8-3.8,1.6-5.6,2.2c-0.2,0-0.3,0.2-0.5,0.2h-0.2
		l-0.6,0.3h-0.2c-10.4,4.5-17.3,8.2-22.1,11.2c-0.2,0.1-0.4,0.3-0.6,0.4c0,0,0,0-0.1,0c-2.9,1.9-4.8,3.5-6.2,4.7
		c-1.4,1.3-2.2,2.3-2.5,2.7l-4.3,6.9c-1.8,1-3.4,1.9-4.8,2.9c-0.1,0.1-0.3,0.2-0.4,0.3c-0.5,0.4-1,0.6-1.6,1
		c-0.2,0.2-0.4,0.3-0.7,0.5c0,0,0,0-0.1,0c-7.5,5.1-11.6,9.7-12.1,13.8l-0.5,4.5c-0.8,1-1.6,1.9-2.4,2.9l-1,1.1l-0.3,0.4l-1,1.2
		c-6.6,8.7-11.7,17.8-15.2,27.1c-4.8,12.7-6.3,24.7-6.1,35.4c0,0,0,0,0,0c0,2.2,0.2,4.5,0.3,6.6c0,0,0,0.1,0,0.1
		c0.3,3,0.7,5.8,1.3,8.5c0.5,2.7,1.1,5.3,1.8,7.7c0,0,0,0,0,0c0.8,3,1.7,5.7,2.6,8.2c0,0.1,0,0.2,0.1,0.2l4.2,2.4l0.1,0.1l4.4,2.5
		c0-0.1-0.1-0.2-0.1-0.3c-1.1-2.4-2.3-5.3-3.4-8.7v0c-1-2.7-1.8-5.6-2.6-8.8c-0.6-3-1.3-6.2-1.8-9.5v0c0-0.1,0-0.1,0-0.2
		c-0.3-2.1-0.5-4.3-0.6-6.7v0c-0.6-10.8,0.6-22.8,5.5-35.6c3.2-8.7,8.2-17.7,15.2-26.8c2.7-3.5,5.9-7.1,9.3-10.6
		c0-0.2,0.2-0.2,0.2-0.2c1.9-2.1,3.7-3.8,5.3-5.1c0,0-7.2,1.2-11.2,2.7c-0.1,0-0.3,0.1-0.4,0.2c-0.1,0.1-0.2,0.1-0.3,0.1
		c-0.2,0.1-0.4,0.2-0.5,0.3h-0.2c0,0,0.2,0,0.2-0.2c0.2-0.2,0.5-0.4,0.7-0.5c0.1-0.1,0.2-0.2,0.3-0.3c0.1-0.1,0.2-0.2,0.3-0.3
		c3.4-3.2,6.8-7.8,36.4-21.1c0,0-1.5-0.5-3.2-0.6c-2.1-0.2-8.5-1-11.1,0c-0.2,0.1-0.4,0.2-0.6,0.3c0-0.1,0.3-0.3,0.8-0.7
		c2.5-1.8,11.3-7.4,31.6-15.8c0,0,0.2,0,0.2-0.2c0.2-0.2,0.5-0.2,0.6-0.3c1.8-0.8,3.7-1.5,5.8-2.3c0.3-0.2,0.6-0.2,1-0.3
		c0.6-0.3,1.4-0.5,2.1-0.8c0.3-0.2,0.7-0.3,1.1-0.5c5-1.9,10.9-3.8,15.4-4.7c0,0,0,0,0,0c0.5-0.1,1.1-0.2,1.6-0.3h0
		c0.2,0,0.4-0.1,0.7-0.1c0,0,0,0-0.2,0h-1.4c0,0,0,0-0.2,0c-2.6,0-7.9,0.3-13.8,1.3c-10.6-10.1-11.9-22.8-11.9-22.8
		c15.4-2.7,31.6-3.2,47.5-0.6c32.4,5.1,62.4,22,77.7,53.6c0.3,0.6,0.6,1.3,0.8,1.8c5.5,12,10.9,21.7,15.9,29.4
		c8.2,12.7,15.4,20,20.2,24.1c0.2,0.1,0.3,0.3,0.4,0.4c1.4,1.2,2.7,2.1,3.7,2.8h0.2c0.1,0.1,0.2,0.1,0.3,0.2c0,0,0,0,0.1,0
		c0.2,0.1,0.3,0.2,0.4,0.3c1,0.5,1.8,0.8,2.3,1.3c0.2,0.2,0.3,0.4,0.4,0.7c0.3,1.1-0.5,3.2-3.1,7.2c-1,1.6-2.2,2.8-3.5,3.6
		c0,0-0.1,0-0.1,0.1c-1,0.6-2,1-3,1.3c-0.1,0-0.2,0-0.3,0.1c-1.1,0.2-2.1,0.3-3.1,0.3c-0.9,0-1.8-0.1-2.5-0.2
		c-1.6-0.3-2.9-0.6-4-1.1c-1.1-0.5-1.8-0.8-1.8-0.8c-5.6,3.8-9.8,4.5-12.7,4c-3-0.5-4.7-2.1-4.7-2.1c5.6-0.6,9.1-5.5,9.1-5.5
		s-8.2-5.8-22.3-7.9c-0.7-0.2-1.3-0.2-1.9-0.3c-4.3-0.5-8-0.3-11.1,0.2c-7.3,1.4-10.7,4.9-10.9,5.1c2.7-1.6,10.1-1.9,10.1-1.9
		s-5,3.9,0.8,16.7c1.6,3.7,3.2,6.3,4.7,7.9c1.9,1.1,3.8,2.3,5.8,3.5c0.2,0,0.3,0,0.3,0c0.1,0,0.2,0,0.2,0c2,0,4.3-3.7,4.3-3.7
		c0.5,2.7,0,5-0.5,6.4c-0.5,1.1-0.8,1.6-0.8,1.6l1.3,2.1c-1.3,0.6-2.6,1.1-3.8,1.4c-4.2,1.3-8,1.5-11.7,0.8
		c-14.4-2.2-24.5-15.6-25-16.4c3.2,2.9,9.6,4.7,9.9,4.8c-1-0.6-2.7-2.9-4.7-5.5c-2.6-3.5-5.5-7.5-6.1-8.5c0,0-28.2,3.2-31.1,25
		c0,0.1,0,0.3-0.1,0.4c-0.3,2-0.3,4.1-0.1,6.4c0,0.1,0,0.1,0,0.2v0c0.2,2.1,0.7,4.4,1.4,6.9c0.7,2.5,1.7,5.2,2.9,8
		c2.7,6.3,6.9,13.2,12.8,21.2c0.1,0.1,0.1,0.1,0.2,0.2c1.6,2.2,3.4,4.4,5.3,6.7l-5.5-0.6l11.6,3.3l0.3,0.1l5.3,1.6l-6.6-8l-0.3-0.4
		c-3-3.7-5.8-7.3-8.2-10.7c-2.4-3.4-4.5-6.7-6.3-9.9c-3-5.5-5.1-10.4-6.2-15c0-0.1,0-0.1,0-0.2c-0.6-2.4-0.8-4.7-0.8-6.9v-0.3
		c0-2.4,0.5-4.7,1.3-6.6c2.9-7.2,10.3-11.2,16.2-13.3l3.4,4.5c0.5,0.6,12,16.2,29.2,18.9c4.8,0.8,9.8,0.5,14.6-1
		c1.6-0.5,3-1.1,4.7-1.8l6.4-2.9l-3.2-5.1c0.6-2.1,1.1-5.1,0.5-8.8l-2.3-11.2l2.6,2.7c0.5,0.5,3.2,3.2,8.2,4
		c4.5,0.7,9.3-0.3,14.3-3.2c1.4,0.5,2.9,0.8,4.3,1c7.9,1.3,14.6-1.6,18.6-7.9C404.3,135.6,406.5,131.7,405.4,127.7z M351.6,141
		l-6.9,11.1c-0.5-0.3-1-0.6-1.5-0.8c-0.8-1.1-1.9-2.9-3-5.6c-2.6-5.6-2.4-8.8-2.1-9.8l2.6-1.9c1.3,0,2.7,0.2,4,0.3
		c0.5,0,1.1,0.2,1.6,0.3c3,0.5,5.8,1.1,8.2,1.9l-6.9,0.8L351.6,141z M269.3,21.8c-2.4-0.8-5.1-1.4-7.9-1.9
		c-12.2-1.9-25.8-0.5-25.8-0.5c0,0.4,0.1,0.8,0.3,1.3c0,0,0,0,0,0c0.1,0.2,0.1,0.4,0.2,0.6c0,0,0,0.1,0.1,0.1c0,0,0,0,0.1,0
		c0.2,0.5,0.3,0.8,0.6,1.3c0.2,0.3,0.2,0.5,0.3,0.8c2.2,4.4,6.2,9.9,6.7,10.8c-2.7-5.8-2.4-11.6-2.4-11.6
		C249.9,19.9,268.2,21.7,269.3,21.8z M269.3,21.8c-2.4-0.8-5.1-1.4-7.9-1.9c-12.2-1.9-25.8-0.5-25.8-0.5c0,0.4,0.1,0.8,0.3,1.3
		c0,0,0,0,0,0c0.1,0.2,0.1,0.4,0.2,0.6c0,0,0,0.1,0.1,0.1c0,0,0,0,0.1,0c0.2,0.5,0.3,0.8,0.6,1.3c0.2,0.3,0.2,0.5,0.3,0.8
		c2.2,4.4,6.2,9.9,6.7,10.8c-2.7-5.8-2.4-11.6-2.4-11.6C249.9,19.9,268.2,21.7,269.3,21.8z M289.7,219.2l-1-2.9l-0.1-0.2l-6.5-0.8
		l-0.1,0l-12.2-1.3l-21.8-2.4h-0.2l-4.3-0.5l-5.1-0.6H238l-8.3-1l-2.9-0.3l-1-0.2l-3.7-0.5l-3.2-0.3l-1.4-0.2l-6.4-0.6l-3.9-0.5
		l-2.1-0.2l-5.1-0.6l-2.7-0.3l-4.3-0.5l-3.1-0.3l-0.1,0h0l-0.7-0.1l-4-0.5l-5.5-0.6l-3-0.3l-1.8-0.2l-0.1,0h-0.5l-4-0.5
		c0.3,1.1,0.5,2.3,0.8,3.2c0,0.1,0.1,0.2,0.1,0.3c0.3,1,0.4,2,0.7,2.9l7.1,0.8c0.8-0.6,1.9-1.4,3.1-2.5c0,0,0,0,0,0s0,0,0,0l0.1,0.1
		l6.1,3.5l1.4,0.2l9,1l4.3,0.4h0l0.5,0l2.2,0.2h0l1.1,0.1l3.9,0.5l3,0.3l2.1,0.2l5.5,0.6l3.5,0.3l3.8,0.5l6.1,0.6l1,0.2l2.9,0.3
		l5,0.5l2.6,0.3l26.2,2.9l11.9,1.3h0l0.1,0l6.4,0.8L289.7,219.2z M269.3,21.8c-2.4-0.8-5.1-1.4-7.9-1.9c-12.2-1.9-25.8-0.5-25.8-0.5
		c0,0.4,0.1,0.8,0.3,1.3c0,0,0,0,0,0c0.1,0.2,0.1,0.4,0.2,0.6c0,0,0,0.1,0.1,0.1c0,0,0,0,0.1,0c0.2,0.5,0.3,0.8,0.6,1.3
		c0.2,0.3,0.2,0.5,0.3,0.8c2.2,4.4,6.2,9.9,6.7,10.8c-2.7-5.8-2.4-11.6-2.4-11.6C249.9,19.9,268.2,21.7,269.3,21.8z M269.3,21.8
		c-2.4-0.8-5.1-1.4-7.9-1.9c-12.2-1.9-25.8-0.5-25.8-0.5c0,0.4,0.1,0.8,0.3,1.3c0,0,0,0,0,0c0.1,0.2,0.1,0.4,0.2,0.6
		c0,0,0,0.1,0.1,0.1c0,0,0,0,0.1,0c0.2,0.5,0.3,0.8,0.6,1.3c0.2,0.3,0.2,0.5,0.3,0.8c2.2,4.4,6.2,9.9,6.7,10.8
		c-2.7-5.8-2.4-11.6-2.4-11.6C249.9,19.9,268.2,21.7,269.3,21.8z M269.3,21.8c-2.4-0.8-5.1-1.4-7.9-1.9c-12.2-1.9-25.8-0.5-25.8-0.5
		c0,0.4,0.1,0.8,0.3,1.3c0,0,0,0,0,0c0.1,0.2,0.1,0.4,0.2,0.6c0,0,0,0.1,0.1,0.1c0,0,0,0,0.1,0c0.2,0.5,0.3,0.8,0.6,1.3
		c0.2,0.3,0.2,0.5,0.3,0.8c2.2,4.4,6.2,9.9,6.7,10.8c-2.7-5.8-2.4-11.6-2.4-11.6C249.9,19.9,268.2,21.7,269.3,21.8z M269.3,21.8
		c-2.4-0.8-5.1-1.4-7.9-1.9c-12.2-1.9-25.8-0.5-25.8-0.5c0,0.4,0.1,0.8,0.3,1.3c0,0,0,0,0,0c0.1,0.2,0.1,0.4,0.2,0.6
		c0,0,0,0.1,0.1,0.1c0,0,0,0,0.1,0c0.2,0.5,0.3,0.8,0.6,1.3c0.2,0.3,0.2,0.5,0.3,0.8c2.2,4.4,6.2,9.9,6.7,10.8
		c-2.7-5.8-2.4-11.6-2.4-11.6C249.9,19.9,268.2,21.7,269.3,21.8z M269.3,21.8c-2.4-0.8-5.1-1.4-7.9-1.9c-12.2-1.9-25.8-0.5-25.8-0.5
		c0,0.4,0.1,0.8,0.3,1.3c0,0,0,0,0,0c0.1,0.2,0.1,0.4,0.2,0.6c0,0,0,0.1,0.1,0.1c0,0,0,0,0.1,0c0.2,0.5,0.3,0.8,0.6,1.3
		c0.2,0.3,0.2,0.5,0.3,0.8c2.2,4.4,6.2,9.9,6.7,10.8c-2.7-5.8-2.4-11.6-2.4-11.6C249.9,19.9,268.2,21.7,269.3,21.8z"/>
	<path d="M263.4,106.7c4-2.9,26.5,2.1,35.8,8.8c0,0-11.2,1.4-23.3,8.8l0,0l0,0c-9.1,5.8-18.8,15.1-24.1,30c-0.6,1.9-1.3,3.9-1.8,5.9
		c-1.4,5.6-2.2,11.7-2.4,18.8c0,1.1,0,2.2,0,3.4c0,0.3,0,0.5,0,0.8l0,0c0,1.1,0,2.1,0.2,3.2c0,0.2,0,0.3,0,0.5
		c0,0.8,0.2,1.8,0.2,2.6c0,0.5,0,1.1,0.2,1.6c0,0.8,0.2,1.8,0.2,2.6c0.2,2.1,0.3,4.2,0.5,5.9c0,1.1,0,2.2,0,3.2l0,0
		c0,1.8-0.2,3.4-0.3,4.8c-0.2,1.3-0.3,2.4-0.5,3.4c0,0.2,0,0.2,0,0.3l0,0c-0.2,1-0.3,1.9-0.6,2.7c-0.3,1.1-0.6,2.1-1,3l-2.6-0.3
		l-5-0.5L236,216l0,0l-1-0.2l-6.1-0.6l-3.9-0.5l-3.5-0.3l0,0l-5.5-0.6l-2.1-0.2l-3-0.3l-3.9-0.5l-3.5,0.2l-4.8-0.5l-9-1l-1.4-0.2
		l-6.3-3.5c-1.3,1.1-2.4,1.9-3.2,2.6l-7.1-0.8c-0.3-1-0.5-2.1-0.8-3.2c-0.3-1-0.5-2.1-0.8-3.2c0-0.3-0.2-0.5-0.2-0.8
		c-0.2-0.5-0.2-1-0.3-1.6c-0.5-2.4-1-5-1.4-7.9c-0.5-2.9-1-6.1-1.3-9.3l0,0c-0.2-1.6-0.3-3.4-0.5-5.1l0,0c-0.2-1.9-0.3-3.7-0.3-5.6
		c-0.2-2.1-0.2-4.3-0.2-6.4c0-2.2,0.2-4.5,0.2-6.9c0.8-14.6,4-29.8,11.9-44l0,0c9.5-16.8,25.5-31.6,51.7-40.4l0,0
		c1-0.3,1.9-0.6,2.9-1c0,0-0.2-0.2-0.6-0.3l0,0c-2.1-0.8-9-3.4-16.2-1.9c0,0,0.3-0.5,0.8-1.1c4.3-5.3,25-26,72.2-9.5
		c0,0-9.1-10.6-21.7-11.4c0,0,48.8-5.6,76.1,35.3c15.9,23.7,21.2,28.9,21.2,28.9s-14.8-4.8-47-16
		C287.5,87.5,265.8,104.8,263.4,106.7z"/>
	
		<linearGradient id="SVGID_1_" gradientUnits="userSpaceOnUse" x1="320.8699" y1="216.8952" x2="339.5216" y2="216.8952" gradientTransform="matrix(1 0 0 -1 0 300)">
		<stop  offset="0" style="stop-color:#FEDA59"/>
		<stop  offset="0.2321" style="stop-color:#FED350"/>
		<stop  offset="0.6042" style="stop-color:#FEC039"/>
		<stop  offset="1" style="stop-color:#FFA719"/>
	</linearGradient>
	<path class="st2" d="M339.4,90.7c0,0-5.5,2.7-10.7-2.1c-1.8-1.6-3.5-4.2-5.1-7.9c0,0,3.4-1-2.7-5.9c0,0,5.6,1.6,10.9,5.9
		C334.8,83.1,337.7,86.3,339.4,90.7z"/>
	<path class="st1" d="M344.1,67.4c0,0-17-20.9-46.8-24.1c0,0,10.4-2.2,24.9,3.9c0,0-16.4-16.8-42.4-20.7c0,0,6.6-0.5,13.6,1.1
		c0,0-10.7-6.1-24.4-8c-13.6-1.9,2.2-4.3,2.2-4.3l26,6.1l15.4,9.5l15.4,9.5l16.4,17.6l4.8,10.6L344.1,67.4z"/>
	<path d="M204,51.8c0,0-16.5,8.3-30.2,19.7c0,0,14-3.2,20.2-1.1l-2.1-3.4l1.1-4.8l8.3-4.7L204,51.8z"/>
	<path d="M395.8,122.9l-12.5,2.2c0,0-1.4,12.7,9.8,18.6l4.5-4.2l5.1-7.7c0,0,1.4-4.5,0.8-4.8C402.8,126.6,395.8,122.9,395.8,122.9z"
		/>
	<path d="M241.6,73c0,0-49.9-1.6-77,48.9c0,0,19.6-11.6,33.2-10.4S243,95.2,243,95.2L241.6,73z"/>
	<path class="st3" d="M227.5,67.6c0,0,19.9-14.8,67.7-1.6c0,0-1-5.8-8.3-11.2c0,0,17.3,2.2,30.3,22C317.1,76.7,251,54.9,227.5,67.6z
		"/>
	<path class="st3" d="M257.8,112.6c0,0,8.2-3.4,31.4,1.8c0,0-23.9,2.4-40.4,34.2c0,0,8.8-27.6,25.4-32.7
		C274.1,115.9,269.3,114.2,257.8,112.6z"/>
	<polygon points="357.7,134.9 354.2,140.2 350.8,146 344.6,154.4 338.3,150.2 335.4,138.3 337.5,130.9 353.1,131.9 	"/>
	<path class="st0" d="M213.7,73.5c0,0,21.7,0,28.4,6.7c0,0-5-8.5-26.5-9.6L213.7,73.5z"/>
	<path class="st3" d="M396.2,126.6l-8.8,1.1c0,0-1.6,6.1,5.5,12.4c0,0-3.7-6.1-3.4-10.1L396.2,126.6z"/>
</g>
<path d="M430.3,247.3v1.6c0,0.2,0,0.3-0.2,0.6c0,0.2-0.2,0.3-0.2,0.5c0,0.2,0,0.3-0.2,0.5v0.3c0,0.2-0.2,0.2-0.2,0.3
	c0,0.2-0.2,0.3-0.2,0.3c0,0.2-0.2,0.3-0.3,0.3c-0.2,0.2-0.2,0.2-0.3,0.3c-0.2,0.2-0.2,0.3-0.3,0.3c-0.2,0.2-0.2,0.2-0.3,0.3
	c-0.2,0.2-0.3,0.2-0.3,0.3c-0.2,0-0.2,0.2-0.3,0.2c-0.2,0.2-0.3,0.2-0.5,0.3c-0.2,0-0.2,0.2-0.3,0.2c-0.2,0-0.3,0.2-0.5,0.2
	c-0.2,0-0.2,0.2-0.3,0.2c-0.2,0-0.3,0.2-0.5,0.2s-0.2,0-0.3,0c-0.3,0-0.6,0.2-0.8,0.2c-0.3,0-0.6,0-1.1-0.2c-0.2,0-0.2,0-0.3,0
	c-0.2,0-0.3,0-0.3-0.2l-111.2-32.4l-5.3-1.6l-0.4-0.1l-11.5-3.3l-6.1-1.8l0.5,1.1l0,0.2l0.1,0.2l1,2.9l1,3l0.1,0.2l15.9,43.6
	c0.8,2.4,0.2,5-1.8,6.7c-1.1,1-2.4,1.4-3.7,1.4c-1.1,0-2.1-0.2-3-0.8l-89.1-50.5l-0.8-0.3L195,215l-5-2.9l-1.2-0.7l-0.4-0.2
	l-6.3-3.5l-0.2-0.1l0,0l-0.3-0.2l-3.4-1.9l-1.8-1l-1.6-1l-0.2-0.2l-0.3-0.2l-4.3-2.4l-0.3-0.2l-0.2-0.1h0l-10.7-6.1l-0.4-0.3l-4-2.3
	l-0.3-0.2l-3.9-2.2l-0.4-0.2l-82.2-46.6c-0.2,0-0.2-0.2-0.3-0.2c-0.2-0.2-0.3-0.2-0.5-0.3c-0.2-0.2-0.3-0.3-0.5-0.3
	c-0.2-0.2-0.3-0.3-0.3-0.3c-0.2-0.2-0.3-0.3-0.3-0.5c-0.2-0.2-0.2-0.3-0.3-0.5c-0.2-0.2-0.2-0.3-0.3-0.5c0-0.2-0.2-0.3-0.2-0.5
	s-0.2-0.3-0.2-0.7c0-0.2,0-0.3-0.2-0.5v-1.8c0-0.2,0-0.3,0.2-0.5c0-0.2,0.2-0.5,0.2-0.6c0-0.2,0-0.3,0.2-0.5c0,0,0,0,0-0.2
	c0,0,0,0,0-0.2c0-0.2,0.2-0.2,0.2-0.3c0-0.2,0.2-0.2,0.2-0.3c0-0.2,0.2-0.3,0.3-0.3c0.2-0.2,0.2-0.2,0.3-0.3
	c0.2-0.2,0.2-0.2,0.3-0.3c0.2-0.2,0.2-0.2,0.3-0.3c0.2-0.2,0.3-0.2,0.3-0.3c0.2-0.2,0.2-0.2,0.3-0.2c0.2-0.2,0.3-0.2,0.5-0.3
	c0.2,0,0.2-0.2,0.3-0.2c0.2,0,0.3-0.2,0.5-0.2c0.2,0,0.2-0.2,0.3-0.2s0.3,0,0.5-0.2c0.2,0,0.2,0,0.3,0h1c0.8,0,1.4,0.2,2.3,0.3
	l70.9,26.3l0.5,0.2l2.9,1.1l0.2,0.1l2.7,1l0.5,0.2L166,166l0.3,0.1l14.1,5.3h0.2l4.3,1.6l3.2,1.3l0.5,0.2l1.8,0.7l3.4,1.3l4.2,1.6
	l0.5,0.2l4.2,1.6l4,1.4l1.1,0.5l0.8,0.3l4.3,1.6l3.9,1.4h0.2l4.2,1.6l2.9,1.1l1.5,0.5l0.5,0.2l5.3,1.9l3.5,1.3l0.3,0.2l3.8,1.5
	l5.1,1.9l0.3,0.2l1.4,0.6l0.2,0.2l-0.2-0.3l-1.1-2.7l-0.2-0.5l-0.6-1.8l-0.5-1.3l-0.2-0.5l-0.5-1.2l-0.2-0.6l-5-12.4l-2.7-6.9
	l-4.8-12.2c0-0.2-0.1-0.3-0.1-0.5c-0.1-0.4-0.2-0.8-0.4-1.3c0-1.3,0.2-2.4,0.8-3.5c0.3-0.5,0.6-1,1.1-1.5c0.7-0.7,1.5-1.2,2.4-1.4
	c0.1,0,0.3-0.1,0.4-0.1h0.2c0.3,0,0.7-0.2,1.1-0.2c1,0,1.9,0.2,2.9,0.6l13.3,6.7l0.3,0.2l9.3,4.7l0.2,0.1l15.5,7.8l0.5,0.3l2.7,1.4
	l0.2,0.1l2.4,1.1l0.6,0.3l143.8,72.4c0.3,0.2,0.6,0.3,1,0.6c0.2,0.2,0.2,0.2,0.3,0.3c0.2,0.2,0.3,0.3,0.5,0.5
	c0.2,0.2,0.2,0.3,0.3,0.3c0.2,0.2,0.3,0.3,0.3,0.5c0,0.2,0.2,0.3,0.2,0.5c0.2,0.2,0.2,0.3,0.3,0.6c0,0.2,0.2,0.3,0.2,0.5
	C430.1,246.9,430.3,247.1,430.3,247.3z"/>
<polygon class="st4" points="424.3,248.4 235.5,153.2 256.7,206.2 70.5,137.4 301.3,268.3 278.6,205.9 "/>
<linearGradient id="SVGID_2_" gradientUnits="userSpaceOnUse" x1="321.0184" y1="-118.2934" x2="358.4763" y2="-1.3518" gradientTransform="matrix(8.870000e-02 0.9961 0.9961 -8.870000e-02 199.7202 -168.2129)">
	<stop  offset="0" style="stop-color:#FEDA59"/>
	<stop  offset="0.2321" style="stop-color:#FED350"/>
	<stop  offset="0.6042" style="stop-color:#FEC039"/>
	<stop  offset="1" style="stop-color:#FFA719"/>
</linearGradient>
<polygon class="st5" points="424.3,248.4 256.7,179.1 278.6,236.8 70.5,137.4 256.7,206.2 235.5,153.2 "/>
<g>
	<g>
		<path d="M172.9,189.8c0,0-10.7,17.8,9.1,35.1c0,0-2.4-3.5-1.9-7.2c0,0,2.2,8.3,12.2,14.9c0,0-3.5-4.5-4.5-8.3
			c0,0,35,32.4,58.9-3.9l-65.8-33.4L172.9,189.8z"/>
		<g>
			<g>
				<path d="M225.4,219.2c0-0.2,0-0.5,0-0.6c0-0.2,0-0.3,0-0.5c0-1.8,0.2-3.5,0.6-5.1c0.2-1,0.5-1.9,0.8-2.9c1-3,2.4-5.9,4-8.5
					c1-1.4,1.9-2.9,3-4.2c1-1.1,1.9-2.2,2.9-3.2c0.5-0.5,1-1,1.4-1.4c1-1,2.1-1.9,2.9-2.7l0.2-0.2c1.3-1.1,2.4-1.9,3.2-2.6
					c0.5-0.3,0.8-0.6,1.1-0.8c0.2-0.2,0.3-0.2,0.3-0.2l4.8-3.2l1.4,5.6c0.6,2.2,1,4.5,1.1,6.6c0,0.5,0,1,0,1.4
					c0.2,2.4,0,4.7-0.3,6.7c-0.3,2.9-1,5.6-1.8,8c-1.3,4-2.9,7.4-4.2,9.5c-0.8,1.6-1.4,2.4-1.6,2.6l-0.2,0.3l-0.2,0.2
					c-0.2,0.2-0.8,1-1.9,1.9c-0.3,0.2-0.5,0.5-0.8,0.6c-0.5,0.3-1,0.8-1.4,1.1c-4.2,2.9-7.7,3.5-10.7,1.9
					C225.8,227.4,225.4,221.9,225.4,219.2z"/>
				<path class="st0" d="M248.2,189.5L248.2,189.5c4.3,16.5-6.1,31.6-6.1,31.6s-5,5.3-8.8,5.3c-2.2,0-3.9-1.9-3.9-8
					C229.5,201.8,248.2,189.5,248.2,189.5z"/>
			</g>
			<g>
				<path d="M227.5,182.8c0,0-0.2,0-0.3,0.2c-3.2,2.1-19.7,13.5-20.5,29.5c-0.2,2.1-0.5,8.5,4,11.1c2.7,1.6,6.3,1.1,10.3-1.4
					c2.2-1.4,4-3.2,4.3-3.4l0.2-0.2l0.2-0.3c0.5-0.6,11.7-15.7,7.9-33.1l-1.1-5.3L227.5,182.8z"/>
				<path class="st0" d="M229.5,186.1c0,0.2,0,0.2,0,0.2c3.2,15.7-7.2,29.7-7.2,29.7s-4.8,4.7-8.3,4.7c-2.2,0-4-1.8-3.5-7.9
					C211.4,197.2,229.5,186.1,229.5,186.1z"/>
			</g>
			<g>
				<path d="M210,176.5c0,0-0.2,0-0.3,0.2c-3.4,1.9-20.1,12.7-21.5,28.7c-0.2,2.1-0.8,8.3,3.5,11.1c2.7,1.8,6.1,1.3,10.3-1.1
					c2.4-1.4,4.2-3,4.3-3.2l0.2-0.2l0.2-0.2c0.5-0.6,12-15.2,8.8-32.6l-1-5.3L210,176.5z"/>
				<path class="st0" d="M211.9,179.9v0.2c2.9,15.9-8.2,29.4-8.2,29.4s-3.9,3.5-7.2,4.2c-2.7,0.6-5.1-0.8-4.5-7.9
					C193.4,190.3,211.9,179.9,211.9,179.9z"/>
			</g>
			<g>
				<path d="M192.2,169.8c0,0-0.2,0-0.3,0.2c-3.4,1.9-20.1,12.7-21.5,28.7c-0.2,2.1-0.8,8.3,3.5,11.1c2.7,1.8,6.1,1.3,10.3-1.1
					c2.4-1.4,4.2-3,4.3-3.2l0.2-0.2l0.2-0.2c0.5-0.6,12-15.2,8.8-32.6l-1-5.3L192.2,169.8z"/>
				<path class="st0" d="M194.1,173.1c0,0.2,0,0.3,0.2,0.5c2.6,15.7-8.2,29-8.2,29s-4.5,4-8,4.3c-2.4,0.2-4.3-1.6-3.7-7.9
					C175.6,183.7,194.1,173.1,194.1,173.1z"/>
			</g>
		</g>
		<path class="st3" d="M174,209.1c0,0-0.8,2.9,4.2,9c0,0,0-2.2,1.8-4.3c0,0,1.8,5,5.9,9.5c0,0-0.6-2.6,0-4.7
			c0,0,16.2,16.2,34.7,15.9c0,0-20.2-3.7-38.8-25.4C181.6,208.9,178.2,212.6,174,209.1z"/>
		<path class="st1" d="M194.1,173.1c0,0.2,0,0.3,0.2,0.5c-13,13.8-15.7,29.5-16.2,33.2c-2.4,0.2-4.3-1.6-3.7-7.9
			C175.6,183.7,194.1,173.1,194.1,173.1z"/>
		<path class="st1" d="M211.9,179.9v0.2c-9.1,10.3-14,27.8-15.4,33.5c-2.7,0.6-5.1-0.8-4.5-7.9C193.4,190.3,211.9,179.9,211.9,179.9
			z"/>
		<path class="st1" d="M229.5,186.1c0,0.2,0,0.2,0,0.2c-7.5,7.7-13.6,27.6-15.6,34.2c-2.2,0-4-1.8-3.5-7.9
			C211.4,197.2,229.5,186.1,229.5,186.1z"/>
		<path class="st1" d="M248.2,189.5L248.2,189.5l-14.9,36.7c-2.2,0-3.9-1.9-3.9-8C229.5,201.8,248.2,189.5,248.2,189.5z"/>
	</g>
	<path d="M177.9,208.6c0,0,2.2-14.9,8.5-24.2c0,0-7.7,9-11.1,24.1L177.9,208.6z"/>
	<path d="M198.6,214.8c0,0,1.1-15.1,6.7-24.9c0,0-6.9,9.5-9.1,24.9H198.6z"/>
	<path d="M215.7,222.4c0,0,1.1-15.1,6.7-24.9c0,0-6.9,9.5-9.1,24.9H215.7z"/>
	<path d="M232.9,227.5c0,0,6.3-12.7,9.6-23.9c0,0-6.7,11.1-12,23.6L232.9,227.5z"/>
</g>
</svg>
